{
    "_default": {},
    "commands": {
        "1": {
            "show admins": "<show><admins/></show>",
            "show arp all": "<show><arp><entry name='all'/></arp></show>",
            "show interface hardware": "<show><interface>hardware</interface></show>",
            "show interface logical": "<show><interface>logical</interface></show>",
            "show jobs all": "<show><jobs><all/></jobs></show>",
            "show routing protocol bgp peer": "<show><routing><protocol><bgp><peer/></bgp></protocol></routing></show>",
            "show routing protocol bgp summary": "<show><routing><protocol><bgp><summary/></bgp></protocol></routing></show>",
            "show routing protocol ospf neighbor": "<show><routing><protocol><ospf><neighbor/></ospf></protocol></routing></show>",
            "show routing route": "<show><routing><route/></routing></show>",
            "show session info": "<show><session><info/></session></show>",
            "show system environmentals": "<show><system><environmentals/></system></show>",
            "show system info": "<show><system><info/></system></show>",
            "show system state filter sys.s1.p*.phy": "<show><system><state><filter-pretty>sys.s1.p*.phy</filter-pretty></state></system></show>",
            "show vpn flow": "<show><vpn><flow/></vpn></show>"
        }
    },
    "device": {}
}